<?xml version="1.0" encoding="UTF-8" standalone="no"?>
<svg
   xmlns:dc="http://purl.org/dc/elements/1.1/"
   xmlns:cc="http://creativecommons.org/ns#"
   xmlns:rdf="http://www.w3.org/1999/02/22-rdf-syntax-ns#"
   xmlns:svg="http://www.w3.org/2000/svg"
   xmlns="http://www.w3.org/2000/svg"
   xmlns:xlink="http://www.w3.org/1999/xlink"
   xmlns:sodipodi="http://sodipodi.sourceforge.net/DTD/sodipodi-0.dtd"
   xmlns:inkscape="http://www.inkscape.org/namespaces/inkscape"
   width="300mm"
   height="400mm"
   viewBox="0 0 300.00001 400"
   version="1.1"
   id="svg8"
   inkscape:version="1.0.2 (e86c870879, 2021-01-15)"
   sodipodi:docname="fdroid.svg"
   inkscape:export-filename="fdroid.png"
   inkscape:export-xdpi="60"
   inkscape:export-ydpi="60">
  <defs
     id="defs2">
    <radialGradient
       inkscape:collect="always"
       xlink:href="#linearGradient5212"
       id="radialGradient5220"
       cx="-98.23381"
       cy="3.4695871"
       fx="-98.23381"
       fy="3.4695871"
       r="22.671185"
       gradientTransform="matrix(0,8.3139352,-8.913716,1.6749458e-7,85.489796,922.48045)"
       gradientUnits="userSpaceOnUse" />
    <linearGradient
       inkscape:collect="always"
       id="linearGradient5212">
      <stop
         style="stop-color:#ffffff;stop-opacity:0.09803922"
         offset="0"
         id="stop5214" />
      <stop
         style="stop-color:#ffffff;stop-opacity:0"
         offset="1"
         id="stop5216" />
    </linearGradient>
    <filter
       inkscape:collect="always"
       style="color-interpolation-filters:sRGB"
       id="filter4175"
       x="-0.023846937"
       width="1.0476938"
       y="-0.024155039"
       height="1.04831">
      <feGaussianBlur
         inkscape:collect="always"
         stdDeviation="0.45053152"
         id="feGaussianBlur4177" />
    </filter>
  </defs>
  <sodipodi:namedview
     id="base"
     pagecolor="#002e59"
     bordercolor="#666666"
     borderopacity="1.0"
     inkscape:pageopacity="0"
     inkscape:pageshadow="2"
     inkscape:zoom="0.55893229"
     inkscape:cx="566.92913"
     inkscape:cy="755.90551"
     inkscape:document-units="mm"
     inkscape:current-layer="layer1"
     showgrid="false"
     inkscape:window-width="1916"
     inkscape:window-height="1036"
     inkscape:window-x="0"
     inkscape:window-y="20"
     inkscape:window-maximized="0"
     fit-margin-top="2"
     fit-margin-left="2"
     fit-margin-right="2"
     fit-margin-bottom="2"
     units="mm"
     inkscape:snap-global="false"
     inkscape:document-rotation="0">
    <inkscape:grid
       type="xygrid"
       id="grid48"
       originx="-53.477614"
       originy="-13.249746" />
  </sodipodi:namedview>
  <metadata
     id="metadata5">
    <rdf:RDF>
      <cc:Work
         rdf:about="">
        <dc:format>image/svg+xml</dc:format>
        <dc:type
           rdf:resource="http://purl.org/dc/dcmitype/StillImage" />
        <dc:title />
      </cc:Work>
    </rdf:RDF>
  </metadata>
  <g
     inkscape:groupmode="layer"
     id="layer1"
     inkscape:label="Layer 1">
    <path
       style="color:#000000;font-style:normal;font-variant:normal;font-weight:normal;font-stretch:normal;font-size:medium;line-height:normal;font-family:sans-serif;text-indent:0;text-align:start;text-decoration:none;text-decoration-line:none;text-decoration-style:solid;text-decoration-color:#000000;letter-spacing:normal;word-spacing:normal;text-transform:none;writing-mode:lr-tb;direction:ltr;baseline-shift:baseline;text-anchor:start;white-space:normal;clip-rule:nonzero;display:inline;overflow:visible;visibility:visible;isolation:auto;mix-blend-mode:normal;color-interpolation:sRGB;color-interpolation-filters:linearRGB;solid-color:#000000;solid-opacity:1;fill:#263238;fill-opacity:0.4;fill-rule:evenodd;stroke:none;stroke-width:2.5;stroke-linecap:round;stroke-linejoin:miter;stroke-miterlimit:4;stroke-dasharray:none;stroke-dashoffset:0;stroke-opacity:1;filter:url(#filter4175);color-rendering:auto;image-rendering:auto;shape-rendering:auto;text-rendering:auto;enable-background:accumulate"
       d="m 2.613462,1006.3488 a 1.250125,1.250125 0 0 0 -1.01172,2.0293 l 3.60351,4.6641 c -0.12699,0.3331 -0.20312,0.6915 -0.20312,1.0703 v 4 2.8652 0.1348 c 0,1.662 1.338,3 3,3 h 32 c 1.662,0 3,-1.338 3,-3 v -4 -2.8652 -0.1348 c 0,-0.3803 -0.0771,-0.74 -0.20508,-1.0742 l 3.60156,-4.6602 a 1.250125,1.250125 0 0 0 -1.04882,-2.0273 1.250125,1.250125 0 0 0 -0.92969,0.498 l -3.43164,4.4414 c -0.31022,-0.1079 -0.63841,-0.1777 -0.98633,-0.1777 h -32 c -0.34857,0 -0.67757,0.069 -0.98828,0.1777 l -3.4336,-4.4414 a 1.250125,1.250125 0 0 0 -0.96679,-0.5 z m 5.38867,18.7637 c -0.20775,0 -0.40983,0.021 -0.60547,0.061 -1.36951,0.2761 -2.39453,1.4698 -2.39453,2.9101 v 0.029 19.7793 0.029 0.1914 c 0,1.662 1.338,3 3,3 h 32 c 1.662,0 3,-1.338 3,-3 v -20 -0.029 c 0,-1.4403 -1.02502,-2.634 -2.39453,-2.9101 -0.19565,-0.039 -0.39772,-0.061 -0.60547,-0.061 h -32 z"
       id="path4192"
       inkscape:connector-curvature="0"
       transform="matrix(4.2100939,0,0,4.2100939,48.95775,-4131.0512)" />
    <g
       id="g5012"
       transform="matrix(4.2100939,0,0,4.2100939,48.958212,-4127.9167)">
      <g
         id="g4179"
         transform="matrix(-1,0,0,1,47.999779,0)">
        <path
           style="fill:#8ab000;fill-opacity:1;fill-rule:evenodd;stroke:#769616;stroke-width:2.5;stroke-linecap:round;stroke-linejoin:miter;stroke-miterlimit:4;stroke-dasharray:none;stroke-opacity:1"
           d="m 2.5889342,1006.8622 4.25,5.5"
           id="path4181"
           inkscape:connector-curvature="0"
           sodipodi:nodetypes="cc" />
        <path
           sodipodi:nodetypes="cccccc"
           inkscape:connector-curvature="0"
           id="path4183"
           d="m 2.6113281,1005.6094 c -0.4534623,0.012 -0.7616975,0.189 -0.9807462,0.4486 2.0269314,2.4089 2.368401,2.7916 5.1354735,6.2214 1.0195329,1.319 2.0816026,0.6373 1.0620696,-0.6817 l -4.25,-5.5 c -0.2289894,-0.3056 -0.5850813,-0.478 -0.9667969,-0.4883 z"
           style="color:#000000;font-style:normal;font-variant:normal;font-weight:normal;font-stretch:normal;font-size:medium;line-height:normal;font-family:sans-serif;text-indent:0;text-align:start;text-decoration:none;text-decoration-line:none;text-decoration-style:solid;text-decoration-color:#000000;letter-spacing:normal;word-spacing:normal;text-transform:none;writing-mode:lr-tb;direction:ltr;baseline-shift:baseline;text-anchor:start;white-space:normal;clip-rule:nonzero;display:inline;overflow:visible;visibility:visible;opacity:1;isolation:auto;mix-blend-mode:normal;color-interpolation:sRGB;color-interpolation-filters:linearRGB;solid-color:#000000;solid-opacity:1;fill:#ffffff;fill-opacity:0.298039;fill-rule:evenodd;stroke:none;stroke-width:2.5;stroke-linecap:round;stroke-linejoin:miter;stroke-miterlimit:4;stroke-dasharray:none;stroke-dashoffset:0;stroke-opacity:1;color-rendering:auto;image-rendering:auto;shape-rendering:auto;text-rendering:auto;enable-background:accumulate" />
        <path
           sodipodi:nodetypes="ccccc"
           inkscape:connector-curvature="0"
           id="path4185"
           d="m 1.6220992,1006.0705 c -0.1238933,0.1479 -0.561176,0.8046 -0.02249,1.5562 l 4.25,5.5 c 1.0195329,1.319 1.1498748,-0.6123 1.1498748,-0.6123 0,0 -3.7344514,-4.51 -5.3773848,-6.4439 z"
           style="color:#000000;font-style:normal;font-variant:normal;font-weight:normal;font-stretch:normal;font-size:medium;line-height:normal;font-family:sans-serif;text-indent:0;text-align:start;text-decoration:none;text-decoration-line:none;text-decoration-style:solid;text-decoration-color:#000000;letter-spacing:normal;word-spacing:normal;text-transform:none;writing-mode:lr-tb;direction:ltr;baseline-shift:baseline;text-anchor:start;white-space:normal;clip-rule:nonzero;display:inline;overflow:visible;visibility:visible;opacity:1;isolation:auto;mix-blend-mode:normal;color-interpolation:sRGB;color-interpolation-filters:linearRGB;solid-color:#000000;solid-opacity:1;fill:#263238;fill-opacity:0.2;fill-rule:evenodd;stroke:none;stroke-width:2.5;stroke-linecap:round;stroke-linejoin:miter;stroke-miterlimit:4;stroke-dasharray:none;stroke-dashoffset:0;stroke-opacity:1;color-rendering:auto;image-rendering:auto;shape-rendering:auto;text-rendering:auto;enable-background:accumulate" />
        <path
           sodipodi:nodetypes="cscccc"
           inkscape:connector-curvature="0"
           id="path4187"
           d="m 2.3378905,1005.8443 c -0.438175,0 -0.959862,0.1416 -0.8242183,0.7986 0.103561,0.5016 4.6608262,6.0744 4.6608262,6.0744 1.0195329,1.319 2.4934721,0.6763 1.4739391,-0.6425 l -4.234375,-5.4727 c -0.2602394,-0.29 -0.6085188,-0.7436 -1.076172,-0.7578 z"
           style="color:#000000;font-style:normal;font-variant:normal;font-weight:normal;font-stretch:normal;font-size:medium;line-height:normal;font-family:sans-serif;text-indent:0;text-align:start;text-decoration:none;text-decoration-line:none;text-decoration-style:solid;text-decoration-color:#000000;letter-spacing:normal;word-spacing:normal;text-transform:none;writing-mode:lr-tb;direction:ltr;baseline-shift:baseline;text-anchor:start;white-space:normal;clip-rule:nonzero;display:inline;overflow:visible;visibility:visible;opacity:1;isolation:auto;mix-blend-mode:normal;color-interpolation:sRGB;color-interpolation-filters:linearRGB;solid-color:#000000;solid-opacity:1;fill:#8ab000;fill-opacity:1;fill-rule:evenodd;stroke:none;stroke-width:2.5;stroke-linecap:round;stroke-linejoin:miter;stroke-miterlimit:4;stroke-dasharray:none;stroke-dashoffset:0;stroke-opacity:1;color-rendering:auto;image-rendering:auto;shape-rendering:auto;text-rendering:auto;enable-background:accumulate" />
      </g>
      <g
         id="g4955">
        <path
           sodipodi:nodetypes="cc"
           inkscape:connector-curvature="0"
           id="path4945"
           d="m 2.5889342,1006.8622 4.25,5.5"
           style="fill:#8ab000;fill-opacity:1;fill-rule:evenodd;stroke:#769616;stroke-width:2.5;stroke-linecap:round;stroke-linejoin:miter;stroke-miterlimit:4;stroke-dasharray:none;stroke-opacity:1" />
        <path
           style="color:#000000;font-style:normal;font-variant:normal;font-weight:normal;font-stretch:normal;font-size:medium;line-height:normal;font-family:sans-serif;text-indent:0;text-align:start;text-decoration:none;text-decoration-line:none;text-decoration-style:solid;text-decoration-color:#000000;letter-spacing:normal;word-spacing:normal;text-transform:none;writing-mode:lr-tb;direction:ltr;baseline-shift:baseline;text-anchor:start;white-space:normal;clip-rule:nonzero;display:inline;overflow:visible;visibility:visible;opacity:1;isolation:auto;mix-blend-mode:normal;color-interpolation:sRGB;color-interpolation-filters:linearRGB;solid-color:#000000;solid-opacity:1;fill:#ffffff;fill-opacity:0.298039;fill-rule:evenodd;stroke:none;stroke-width:2.5;stroke-linecap:round;stroke-linejoin:miter;stroke-miterlimit:4;stroke-dasharray:none;stroke-dashoffset:0;stroke-opacity:1;color-rendering:auto;image-rendering:auto;shape-rendering:auto;text-rendering:auto;enable-background:accumulate"
           d="m 2.6113281,1005.6094 c -0.4534623,0.012 -0.7616975,0.189 -0.9807462,0.4486 2.0269314,2.4089 2.368401,2.7916 5.1354735,6.2214 1.0195329,1.319 2.0816026,0.6373 1.0620696,-0.6817 l -4.25,-5.5 c -0.2289894,-0.3056 -0.5850813,-0.478 -0.9667969,-0.4883 z"
           id="path4947"
           inkscape:connector-curvature="0"
           sodipodi:nodetypes="cccccc" />
        <path
           style="color:#000000;font-style:normal;font-variant:normal;font-weight:normal;font-stretch:normal;font-size:medium;line-height:normal;font-family:sans-serif;text-indent:0;text-align:start;text-decoration:none;text-decoration-line:none;text-decoration-style:solid;text-decoration-color:#000000;letter-spacing:normal;word-spacing:normal;text-transform:none;writing-mode:lr-tb;direction:ltr;baseline-shift:baseline;text-anchor:start;white-space:normal;clip-rule:nonzero;display:inline;overflow:visible;visibility:visible;opacity:1;isolation:auto;mix-blend-mode:normal;color-interpolation:sRGB;color-interpolation-filters:linearRGB;solid-color:#000000;solid-opacity:1;fill:#263238;fill-opacity:0.2;fill-rule:evenodd;stroke:none;stroke-width:2.5;stroke-linecap:round;stroke-linejoin:miter;stroke-miterlimit:4;stroke-dasharray:none;stroke-dashoffset:0;stroke-opacity:1;color-rendering:auto;image-rendering:auto;shape-rendering:auto;text-rendering:auto;enable-background:accumulate"
           d="m 1.6220992,1006.0705 c -0.1238933,0.1479 -0.561176,0.8046 -0.02249,1.5562 l 4.25,5.5 c 1.0195329,1.319 1.1498748,-0.6123 1.1498748,-0.6123 0,0 -3.7344514,-4.51 -5.3773848,-6.4439 z"
           id="path4951"
           inkscape:connector-curvature="0"
           sodipodi:nodetypes="ccccc" />
        <path
           style="color:#000000;font-style:normal;font-variant:normal;font-weight:normal;font-stretch:normal;font-size:medium;line-height:normal;font-family:sans-serif;text-indent:0;text-align:start;text-decoration:none;text-decoration-line:none;text-decoration-style:solid;text-decoration-color:#000000;letter-spacing:normal;word-spacing:normal;text-transform:none;writing-mode:lr-tb;direction:ltr;baseline-shift:baseline;text-anchor:start;white-space:normal;clip-rule:nonzero;display:inline;overflow:visible;visibility:visible;opacity:1;isolation:auto;mix-blend-mode:normal;color-interpolation:sRGB;color-interpolation-filters:linearRGB;solid-color:#000000;solid-opacity:1;fill:#8ab000;fill-opacity:1;fill-rule:evenodd;stroke:none;stroke-width:2.5;stroke-linecap:round;stroke-linejoin:miter;stroke-miterlimit:4;stroke-dasharray:none;stroke-dashoffset:0;stroke-opacity:1;color-rendering:auto;image-rendering:auto;shape-rendering:auto;text-rendering:auto;enable-background:accumulate"
           d="m 2.3378905,1005.8443 c -0.438175,0 -0.959862,0.1416 -0.8242183,0.7986 0.103561,0.5016 4.6608262,6.0744 4.6608262,6.0744 1.0195329,1.319 2.4934721,0.6763 1.4739391,-0.6425 l -4.234375,-5.4727 c -0.2602394,-0.29 -0.6085188,-0.7436 -1.076172,-0.7578 z"
           id="path4925"
           inkscape:connector-curvature="0"
           sodipodi:nodetypes="cscccc" />
      </g>
      <g
         transform="translate(42)"
         id="g4967">
        <rect
           style="opacity:1;fill:#aeea00;fill-opacity:1;stroke:none;stroke-width:3;stroke-linecap:round;stroke-linejoin:miter;stroke-miterlimit:3;stroke-dasharray:none;stroke-dashoffset:0;stroke-opacity:1"
           id="rect4144"
           width="38"
           height="13"
           x="-37"
           y="1010.3622"
           rx="3"
           ry="3" />
        <rect
           ry="3"
           rx="3"
           y="1013.3622"
           x="-37"
           height="10"
           width="38"
           id="rect4961"
           style="opacity:1;fill:#263238;fill-opacity:0.2;stroke:none;stroke-width:3;stroke-linecap:round;stroke-linejoin:miter;stroke-miterlimit:3;stroke-dasharray:none;stroke-dashoffset:0;stroke-opacity:1" />
        <rect
           ry="3"
           rx="3"
           y="1010.3622"
           x="-37"
           height="10"
           width="38"
           id="rect4963"
           style="opacity:1;fill:#ffffff;fill-opacity:0.298039;stroke:none;stroke-width:3;stroke-linecap:round;stroke-linejoin:miter;stroke-miterlimit:3;stroke-dasharray:none;stroke-dashoffset:0;stroke-opacity:1" />
        <rect
           ry="2.5384617"
           rx="3"
           y="1011.3622"
           x="-37"
           height="11"
           width="38"
           id="rect4965"
           style="opacity:1;fill:#aeea00;fill-opacity:1;stroke:none;stroke-width:3;stroke-linecap:round;stroke-linejoin:miter;stroke-miterlimit:3;stroke-dasharray:none;stroke-dashoffset:0;stroke-opacity:1" />
      </g>
      <g
         id="g4979">
        <rect
           style="opacity:1;fill:#1976d2;fill-opacity:1;stroke:none;stroke-width:3;stroke-linecap:round;stroke-linejoin:miter;stroke-miterlimit:3;stroke-dasharray:none;stroke-dashoffset:0;stroke-opacity:1"
           id="rect4146"
           width="38"
           height="26"
           x="5"
           y="1024.3622"
           rx="3"
           ry="3" />
        <rect
           ry="3"
           rx="3"
           y="1037.3622"
           x="5"
           height="13"
           width="38"
           id="rect4973"
           style="opacity:1;fill:#263238;fill-opacity:0.2;stroke:none;stroke-width:3;stroke-linecap:round;stroke-linejoin:miter;stroke-miterlimit:3;stroke-dasharray:none;stroke-dashoffset:0;stroke-opacity:1" />
        <rect
           ry="3"
           rx="3"
           y="1024.3622"
           x="5"
           height="13"
           width="38"
           id="rect4975"
           style="opacity:1;fill:#ffffff;fill-opacity:0.2;stroke:none;stroke-width:3;stroke-linecap:round;stroke-linejoin:miter;stroke-miterlimit:3;stroke-dasharray:none;stroke-dashoffset:0;stroke-opacity:1" />
        <rect
           ry="2.7692308"
           rx="3"
           y="1025.3622"
           x="5"
           height="24"
           width="38"
           id="rect4977"
           style="opacity:1;fill:#1976d2;fill-opacity:1;stroke:none;stroke-width:3;stroke-linecap:round;stroke-linejoin:miter;stroke-miterlimit:3;stroke-dasharray:none;stroke-dashoffset:0;stroke-opacity:1" />
      </g>
      <g
         transform="translate(0,1013.3622)"
         id="g4211">
        <path
           style="color:#000000;font-style:normal;font-variant:normal;font-weight:normal;font-stretch:normal;font-size:medium;line-height:normal;font-family:sans-serif;text-indent:0;text-align:start;text-decoration:none;text-decoration-line:none;text-decoration-style:solid;text-decoration-color:#000000;letter-spacing:normal;word-spacing:normal;text-transform:none;writing-mode:lr-tb;direction:ltr;baseline-shift:baseline;text-anchor:start;white-space:normal;clip-rule:nonzero;display:inline;overflow:visible;visibility:visible;opacity:1;isolation:auto;mix-blend-mode:normal;color-interpolation:sRGB;color-interpolation-filters:linearRGB;solid-color:#000000;solid-opacity:1;fill:#0d47a1;fill-opacity:1;fill-rule:nonzero;stroke:none;stroke-width:3;stroke-linecap:round;stroke-linejoin:miter;stroke-miterlimit:4;stroke-dasharray:none;stroke-dashoffset:0;stroke-opacity:1;color-rendering:auto;image-rendering:auto;shape-rendering:auto;text-rendering:auto;enable-background:accumulate"
           d="m 24,17.75 c -2.880662,0 -5.319789,1.984685 -6.033203,4.650391 h 3.212891 C 21.734004,21.415044 22.774798,20.75 24,20.75 c 1.812692,0 3.25,1.437308 3.25,3.25 0,1.812693 -1.437308,3.25 -3.25,3.25 -1.307381,0 -2.411251,-0.75269 -2.929688,-1.849609 H 17.916016 C 18.558263,28.166146 21.04791,30.25 24,30.25 c 3.434013,0 6.25,-2.815987 6.25,-6.25 0,-3.434012 -2.815987,-6.25 -6.25,-6.25 z"
           id="path4161"
           inkscape:connector-curvature="0" />
        <circle
           style="opacity:1;fill:none;fill-opacity:0.403922;stroke:#0d47a1;stroke-width:1.9;stroke-linecap:round;stroke-linejoin:miter;stroke-miterlimit:4;stroke-dasharray:none;stroke-dashoffset:0;stroke-opacity:1"
           id="path4209"
           cx="24"
           cy="24"
           r="9.5500002" />
      </g>
      <g
         id="g4989"
         transform="translate(0,0.50001738)">
        <ellipse
           cy="1016.4872"
           cx="14.375"
           id="circle4985"
           style="opacity:1;fill:#263238;fill-opacity:0.2;stroke:none;stroke-width:1.9;stroke-linecap:round;stroke-linejoin:miter;stroke-miterlimit:4;stroke-dasharray:none;stroke-dashoffset:0;stroke-opacity:0.697211"
           rx="3.375"
           ry="3.875" />
        <circle
           style="opacity:1;fill:#ffffff;fill-opacity:1;stroke:none;stroke-width:1.9;stroke-linecap:round;stroke-linejoin:miter;stroke-miterlimit:4;stroke-dasharray:none;stroke-dashoffset:0;stroke-opacity:0.697211"
           id="path4859"
           cx="14.375"
           cy="1016.9872"
           r="3.375" />
      </g>
      <g
         transform="translate(19.5,0.50001738)"
         id="g4171">
        <ellipse
           ry="3.875"
           rx="3.375"
           style="opacity:1;fill:#263238;fill-opacity:0.2;stroke:none;stroke-width:1.9;stroke-linecap:round;stroke-linejoin:miter;stroke-miterlimit:4;stroke-dasharray:none;stroke-dashoffset:0;stroke-opacity:0.697211"
           id="ellipse4175"
           cx="14.375"
           cy="1016.4872" />
        <circle
           r="3.375"
           cy="1016.9872"
           cx="14.375"
           id="circle4177"
           style="opacity:1;fill:#ffffff;fill-opacity:1;stroke:none;stroke-width:1.9;stroke-linecap:round;stroke-linejoin:miter;stroke-miterlimit:4;stroke-dasharray:none;stroke-dashoffset:0;stroke-opacity:0.697211" />
      </g>
    </g>
    <path
       inkscape:connector-curvature="0"
       id="path5128"
       d="m 59.960652,105.76718 a 5.2631439,5.2631439 0 0 0 -4.259432,8.54351 l 15.171125,19.63626 c -0.534655,1.40186 -0.855127,2.91129 -0.855127,4.50617 v 16.84032 12.06285 0.56807 c 0,6.99721 5.6331,12.63028 12.630283,12.63028 H 217.3705 c 6.99718,0 12.63028,-5.63307 12.63028,-12.63028 v -16.84033 -12.06285 -0.56806 c 0,-1.60109 -0.32461,-3.11545 -0.8634,-4.52256 l 15.1629,-19.61987 a 5.2631439,5.2631439 0 0 0 -4.41563,-8.53508 5.2631439,5.2631439 0 0 0 -3.91407,2.09658 l -14.44753,18.69868 c -1.30607,-0.45351 -2.68778,-0.74787 -4.15255,-0.74787 H 82.647501 c -1.467574,0 -2.852636,0.29119 -4.160756,0.74787 L 64.03097,107.87219 a 5.2631439,5.2631439 0 0 0 -4.070286,-2.10501 z m 22.686824,78.99686 c -0.874692,0 -1.725423,0.0955 -2.549098,0.25619 -5.765762,1.16317 -10.081185,6.18809 -10.081185,12.25189 v 0.12729 83.27267 0.1273 0.80516 c 0,6.99722 5.633092,12.63028 12.630283,12.63028 H 217.37046 c 6.99719,0 12.63028,-5.63306 12.63028,-12.63028 v -84.20194 -0.1273 c 0,-6.06381 -4.31543,-11.08934 -10.08118,-12.25173 -0.82378,-0.16389 -1.67446,-0.25618 -2.5491,-0.25618 H 82.647476 Z"
       style="color:#000000;font-style:normal;font-variant:normal;font-weight:normal;font-stretch:normal;font-size:medium;line-height:normal;font-family:sans-serif;text-indent:0;text-align:start;text-decoration:none;text-decoration-line:none;text-decoration-style:solid;text-decoration-color:#000000;letter-spacing:normal;word-spacing:normal;text-transform:none;writing-mode:lr-tb;direction:ltr;baseline-shift:baseline;text-anchor:start;white-space:normal;clip-rule:nonzero;display:inline;overflow:visible;visibility:visible;isolation:auto;mix-blend-mode:normal;color-interpolation:sRGB;color-interpolation-filters:linearRGB;solid-color:#000000;solid-opacity:1;fill:url(#radialGradient5220);fill-opacity:1;fill-rule:evenodd;stroke:none;stroke-width:10.5253;stroke-linecap:round;stroke-linejoin:miter;stroke-miterlimit:4;stroke-dasharray:none;stroke-dashoffset:0;stroke-opacity:1;color-rendering:auto;image-rendering:auto;shape-rendering:auto;text-rendering:auto;enable-background:accumulate" />
    <g
       aria-label="F-Droid"
       style="color:#000000;font-style:normal;font-variant:normal;font-weight:bold;font-stretch:normal;line-height:0%;font-family:Rokkitt;-inkscape-font-specification:'Rokkitt Bold';text-align:start;letter-spacing:0px;word-spacing:0px;writing-mode:lr-tb;text-anchor:start;display:inline;overflow:visible;visibility:visible;fill:#ffffff;fill-opacity:1;fill-rule:nonzero;stroke:none;stroke-width:1.09953px;marker:none;enable-background:accumulate"
       id="text5902"
       transform="matrix(1.8964445,0,0,1.8964445,-601.56134,-682.0229)">
      <path
         d="m 343.56995,549.2971 2.24847,-0.43519 v -15.15904 l -2.24847,-0.43519 v -2.5531 h 16.81275 v 5.788 h -3.2494 l -0.18858,-2.52409 h -6.89047 v 5.81701 h 7.39819 v 3.26391 h -7.39819 v 5.8025 l 2.26297,0.43519 v 2.53859 h -8.74727 z"
         style="font-style:normal;font-variant:normal;font-weight:bold;font-stretch:normal;font-size:29.7088px;line-height:100%;font-family:'Roboto Slab';-inkscape-font-specification:'Roboto Slab Bold';text-align:start;writing-mode:lr-tb;text-anchor:start;fill:#ffffff;fill-opacity:1;stroke-width:1.09953px"
         id="path5505"
         inkscape:connector-curvature="0" />
      <path
         d="m 371.17536,544.4375 h -8.18153 v -3.26391 h 8.18153 z"
         style="font-style:normal;font-variant:normal;font-weight:bold;font-stretch:normal;font-size:29.7088px;line-height:100%;font-family:'Roboto Slab';-inkscape-font-specification:'Roboto Slab Bold';text-align:start;writing-mode:lr-tb;text-anchor:start;fill:#ffffff;fill-opacity:1;stroke-width:1.09953px"
         id="path5507"
         inkscape:connector-curvature="0" />
      <path
         d="m 383.24457,530.71458 q 3.87317,0 6.38275,2.48057 2.50959,2.46606 2.50959,6.33923 v 3.49601 q 0,3.88768 -2.50959,6.35375 -2.50958,2.45155 -6.38275,2.45155 h -9.5016 v -2.53859 l 2.24847,-0.43519 v -15.15904 l -2.24847,-0.43519 v -2.5531 h 2.24847 z m -3.0173,3.26391 v 14.6078 h 2.79971 q 2.27748,0 3.56854,-1.53766 1.29105,-1.53767 1.29105,-4.01824 v -3.52502 q 0,-2.45156 -1.29105,-3.98922 -1.29106,-1.53766 -3.56854,-1.53766 z"
         style="font-style:normal;font-variant:normal;font-weight:bold;font-stretch:normal;font-size:29.7088px;line-height:100%;font-family:'Roboto Slab';-inkscape-font-specification:'Roboto Slab Bold';text-align:start;writing-mode:lr-tb;text-anchor:start;fill:#ffffff;fill-opacity:1;stroke-width:1.09953px"
         id="path5509"
         inkscape:connector-curvature="0" />
      <path
         d="m 394.64649,549.2971 2.03088,-0.43519 v -9.7337 l -2.24847,-0.43519 v -2.5531 h 6.19417 l 0.18858,2.29199 q 0.55124,-1.21853 1.42162,-1.90032 0.87037,-0.6818 2.01637,-0.6818 0.33364,0 0.6963,0.058 0.37716,0.0435 0.62377,0.11605 l -0.4497,3.85867 -1.74075,-0.0435 q -0.9284,0 -1.53766,0.36265 -0.60927,0.36266 -0.9284,1.02995 v 7.63029 l 2.03087,0.43519 v 2.53859 h -8.29758 z"
         style="font-style:normal;font-variant:normal;font-weight:bold;font-stretch:normal;font-size:29.7088px;line-height:100%;font-family:'Roboto Slab';-inkscape-font-specification:'Roboto Slab Bold';text-align:start;writing-mode:lr-tb;text-anchor:start;fill:#ffffff;fill-opacity:1;stroke-width:1.09953px"
         id="path5511"
         inkscape:connector-curvature="0" />
      <path
         d="m 406.57064,543.84274 q 0,-3.51051 1.95834,-5.74447 1.97285,-2.24848 5.43985,-2.24848 3.4815,0 5.43985,2.23397 1.97285,2.23396 1.97285,5.75898 v 0.30464 q 0,3.53952 -1.97285,5.77349 -1.95835,2.21945 -5.41084,2.21945 -3.49601,0 -5.46886,-2.21945 -1.95834,-2.23397 -1.95834,-5.77349 z m 4.23582,0.30464 q 0,2.14692 0.75433,3.45249 0.75433,1.29105 2.43705,1.29105 1.63921,0 2.39353,-1.30556 0.76884,-1.30556 0.76884,-3.43798 v -0.30464 q 0,-2.0889 -0.76884,-3.40897 -0.76883,-1.32007 -2.42254,-1.32007 -1.65371,0 -2.40804,1.32007 -0.75433,1.32007 -0.75433,3.40897 z"
         style="font-style:normal;font-variant:normal;font-weight:bold;font-stretch:normal;font-size:29.7088px;line-height:100%;font-family:'Roboto Slab';-inkscape-font-specification:'Roboto Slab Bold';text-align:start;writing-mode:lr-tb;text-anchor:start;fill:#ffffff;fill-opacity:1;stroke-width:1.09953px"
         id="path5513"
         inkscape:connector-curvature="0" />
      <path
         d="m 423.09327,549.2971 2.04538,-0.43519 v -9.7337 l -2.26298,-0.43519 v -2.5531 h 6.49881 v 12.72199 l 2.03087,0.43519 v 2.53859 h -8.31208 z m 6.28121,-16.9143 h -4.23583 v -3.17687 h 4.23583 z"
         style="font-style:normal;font-variant:normal;font-weight:bold;font-stretch:normal;font-size:29.7088px;line-height:100%;font-family:'Roboto Slab';-inkscape-font-specification:'Roboto Slab Bold';text-align:start;writing-mode:lr-tb;text-anchor:start;fill:#ffffff;fill-opacity:1;stroke-width:1.09953px"
         id="path5515"
         inkscape:connector-curvature="0" />
      <path
         d="m 443.01037,549.92087 q -0.73982,1.08797 -1.75526,1.65371 -1.00093,0.56574 -2.29199,0.56574 -2.90125,0 -4.51145,-2.11791 -1.59569,-2.11791 -1.59569,-5.59942 v -0.30463 q 0,-3.7136 1.6102,-5.99108 1.61019,-2.27749 4.52595,-2.27749 1.17501,0 2.11792,0.52223 0.9429,0.50772 1.65371,1.45063 v -5.62843 l -2.26298,-0.43519 v -2.5531 h 2.26298 4.23583 v 19.65598 l 2.03087,0.43519 v 2.53859 h -5.70096 z m -5.91856,-5.49788 q 0,2.05989 0.6818,3.24941 0.6963,1.175 2.26297,1.175 0.9284,0 1.6102,-0.37716 0.68179,-0.37716 1.11698,-1.08797 v -6.65837 q -0.43519,-0.75433 -1.11698,-1.1605 -0.66729,-0.42068 -1.58119,-0.42068 -1.55217,0 -2.26297,1.37809 -0.71081,1.3781 -0.71081,3.59755 z"
         style="font-style:normal;font-variant:normal;font-weight:bold;font-stretch:normal;font-size:29.7088px;line-height:100%;font-family:'Roboto Slab';-inkscape-font-specification:'Roboto Slab Bold';text-align:start;writing-mode:lr-tb;text-anchor:start;fill:#ffffff;fill-opacity:1;stroke-width:1.09953px"
         id="path5517"
         inkscape:connector-curvature="0" />
    </g>
    <g
       aria-label="Free Your Android!"
       id="text363"
       style="font-style:normal;font-variant:normal;font-weight:normal;font-stretch:normal;font-size:31.75px;line-height:1.25;font-family:Roboto;-inkscape-font-specification:'Roboto, Normal';font-variant-ligatures:normal;font-variant-caps:normal;font-variant-numeric:normal;font-variant-east-asian:normal;fill:#ffffff;fill-opacity:1;stroke:none;stroke-width:0.264583">
      <path
         d="M 22.465149,74.655762 V 52.083496 h 13.983643 v 2.449463 H 25.457214 v 7.704956 h 9.456787 v 2.449463 h -9.456787 v 9.968384 z"
         style="font-style:normal;font-variant:normal;font-weight:normal;font-stretch:normal;font-size:31.75px;font-family:Roboto;-inkscape-font-specification:'Roboto, Normal';font-variant-ligatures:normal;font-variant-caps:normal;font-variant-numeric:normal;font-variant-east-asian:normal;fill:#ffffff;stroke-width:0.264583"
         id="path64" />
      <path
         d="m 45.874573,60.331055 q -2.806031,0 -3.829224,2.418457 v 11.90625 h -2.868042 v -16.77417 h 2.790527 l 0.06201,1.922363 q 1.379761,-2.232422 3.984253,-2.232422 0.806152,0 1.27124,0.217041 l -0.0155,2.666504 q -0.63562,-0.124023 -1.395263,-0.124023 z"
         style="font-style:normal;font-variant:normal;font-weight:normal;font-stretch:normal;font-size:31.75px;font-family:Roboto;-inkscape-font-specification:'Roboto, Normal';font-variant-ligatures:normal;font-variant-caps:normal;font-variant-numeric:normal;font-variant-east-asian:normal;fill:#ffffff;stroke-width:0.264583"
         id="path66" />
      <path
         d="m 62.912292,71.725708 q -0.821655,1.240234 -2.325439,2.247925 -1.503784,0.992187 -3.984253,0.992187 -3.503662,0 -5.61206,-2.27893 -2.092896,-2.278931 -2.092896,-5.829102 v -0.651123 q 0,-2.744019 1.038696,-4.666382 1.0542,-1.937866 2.728516,-2.945556 1.674316,-1.023194 3.565674,-1.023194 3.596679,0 5.23999,2.356446 1.658813,2.340942 1.658813,5.860107 v 1.286743 H 51.781189 q 0.06201,2.309937 1.364258,3.937744 1.317749,1.612305 3.612182,1.612305 1.519288,0 2.573487,-0.620117 1.054199,-0.620117 1.844848,-1.658814 z M 56.23053,59.927979 q -1.705322,0 -2.883545,1.240234 -1.178223,1.240234 -1.472778,3.565674 h 8.387085 V 64.516846 Q 60.152771,62.842529 59.284607,61.385254 58.431946,59.927979 56.23053,59.927979 Z"
         style="font-style:normal;font-variant:normal;font-weight:normal;font-stretch:normal;font-size:31.75px;font-family:Roboto;-inkscape-font-specification:'Roboto, Normal';font-variant-ligatures:normal;font-variant-caps:normal;font-variant-numeric:normal;font-variant-east-asian:normal;fill:#ffffff;stroke-width:0.264583"
         id="path68" />
      <path
         d="m 79.748474,71.725708 q -0.821655,1.240234 -2.325439,2.247925 -1.503785,0.992187 -3.984253,0.992187 -3.503662,0 -5.612061,-2.27893 -2.092895,-2.278931 -2.092895,-5.829102 v -0.651123 q 0,-2.744019 1.038696,-4.666382 1.054199,-1.937866 2.728516,-2.945556 1.674316,-1.023194 3.565673,-1.023194 3.59668,0 5.239991,2.356446 1.658813,2.340942 1.658813,5.860107 v 1.286743 H 68.617371 q 0.06201,2.309937 1.364257,3.937744 1.317749,1.612305 3.612183,1.612305 1.519287,0 2.573486,-0.620117 1.0542,-0.620117 1.844849,-1.658814 z M 73.066711,59.927979 q -1.705322,0 -2.883544,1.240234 -1.178223,1.240234 -1.472779,3.565674 h 8.387085 v -0.217041 q -0.10852,-1.674317 -0.976684,-3.131592 -0.852662,-1.457275 -3.054078,-1.457275 z"
         style="font-style:normal;font-variant:normal;font-weight:normal;font-stretch:normal;font-size:31.75px;font-family:Roboto;-inkscape-font-specification:'Roboto, Normal';font-variant-ligatures:normal;font-variant-caps:normal;font-variant-numeric:normal;font-variant-east-asian:normal;fill:#ffffff;stroke-width:0.264583"
         id="path70" />
      <path
         d="m 92.662415,52.083496 5.860107,11.332642 5.875608,-11.332642 h 3.39514 l -7.78247,14.138672 v 8.433594 H 97.018738 V 66.222168 L 89.236267,52.083496 Z"
         style="font-style:normal;font-variant:normal;font-weight:normal;font-stretch:normal;font-size:31.75px;font-family:Roboto;-inkscape-font-specification:'Roboto, Normal';font-variant-ligatures:normal;font-variant-caps:normal;font-variant-numeric:normal;font-variant-east-asian:normal;fill:#ffffff;stroke-width:0.264583"
         id="path72" />
      <path
         d="m 108.49091,66.098145 q 0,-3.643189 2.04638,-6.077149 2.04639,-2.449463 5.56555,-2.449463 3.51917,0 5.56556,2.402954 2.04638,2.387451 2.09289,5.968628 v 0.511597 q 0,3.643188 -2.06189,6.077148 -2.04638,2.43396 -5.56555,2.43396 -3.53467,0 -5.59656,-2.43396 -2.04638,-2.43396 -2.04638,-6.077148 z m 2.86804,0.356567 q 0,2.495972 1.17822,4.325317 1.19373,1.829346 3.59668,1.829346 2.34094,0 3.53467,-1.79834 1.19372,-1.813843 1.20923,-4.309814 v -0.403076 q 0,-2.464966 -1.19373,-4.309815 -1.19372,-1.860351 -3.58118,-1.860351 -2.37194,0 -3.56567,1.860351 -1.17822,1.844849 -1.17822,4.309815 z"
         style="font-style:normal;font-variant:normal;font-weight:normal;font-stretch:normal;font-size:31.75px;font-family:Roboto;-inkscape-font-specification:'Roboto, Normal';font-variant-ligatures:normal;font-variant-caps:normal;font-variant-numeric:normal;font-variant-east-asian:normal;fill:#ffffff;stroke-width:0.264583"
         id="path74" />
      <path
         d="m 137.76044,74.655762 -0.062,-1.658814 q -1.64332,1.968872 -4.89893,1.968872 -2.46497,0 -3.98425,-1.457275 -1.51929,-1.457275 -1.51929,-4.805908 V 57.881592 h 2.86804 v 10.852051 q 0,2.263427 0.94568,3.038574 0.96118,0.759643 2.1394,0.759643 3.24012,0 4.37183,-2.43396 V 57.881592 h 2.88355 v 16.77417 z"
         style="font-style:normal;font-variant:normal;font-weight:normal;font-stretch:normal;font-size:31.75px;font-family:Roboto;-inkscape-font-specification:'Roboto, Normal';font-variant-ligatures:normal;font-variant-caps:normal;font-variant-numeric:normal;font-variant-east-asian:normal;fill:#ffffff;stroke-width:0.264583"
         id="path76" />
      <path
         d="m 151.55804,60.331055 q -2.80603,0 -3.82922,2.418457 v 11.90625 h -2.86804 v -16.77417 h 2.79053 l 0.062,1.922363 q 1.37976,-2.232422 3.98425,-2.232422 0.80615,0 1.27124,0.217041 l -0.0155,2.666504 q -0.63562,-0.124023 -1.39527,-0.124023 z"
         style="font-style:normal;font-variant:normal;font-weight:normal;font-stretch:normal;font-size:31.75px;font-family:Roboto;-inkscape-font-specification:'Roboto, Normal';font-variant-ligatures:normal;font-variant-caps:normal;font-variant-numeric:normal;font-variant-east-asian:normal;fill:#ffffff;stroke-width:0.264583"
         id="path78" />
      <path
         d="m 161.75897,74.655762 8.60413,-22.572266 h 2.61999 l 8.63514,22.572266 h -3.06958 l -2.15491,-5.906616 h -9.44129 l -2.1394,5.906616 z m 6.09265,-8.356079 h 7.65845 l -3.82922,-10.52649 z"
         style="font-style:normal;font-variant:normal;font-weight:normal;font-stretch:normal;font-size:31.75px;font-family:Roboto;-inkscape-font-specification:'Roboto, Normal';font-variant-ligatures:normal;font-variant-caps:normal;font-variant-numeric:normal;font-variant-east-asian:normal;fill:#ffffff;stroke-width:0.264583"
         id="path80" />
      <path
         d="m 191.16803,59.98999 q -1.37976,0 -2.43396,0.744141 -1.0542,0.74414 -1.65881,1.937866 v 11.983765 h -2.86805 v -16.77417 h 2.71302 l 0.093,2.092895 q 1.90686,-2.402954 5.00745,-2.402954 2.46497,0 3.90674,1.379761 1.45727,1.379761 1.47278,4.635376 v 11.069092 h -2.88355 V 63.633179 q 0,-1.968872 -0.86816,-2.806031 -0.85266,-0.837158 -2.48047,-0.837158 z"
         style="font-style:normal;font-variant:normal;font-weight:normal;font-stretch:normal;font-size:31.75px;font-family:Roboto;-inkscape-font-specification:'Roboto, Normal';font-variant-ligatures:normal;font-variant-caps:normal;font-variant-numeric:normal;font-variant-east-asian:normal;fill:#ffffff;stroke-width:0.264583"
         id="path82" />
      <path
         d="m 212.56207,74.655762 -0.13952,-1.79834 q -1.72083,2.108398 -4.79041,2.108398 -2.94556,0 -4.7594,-2.387451 -1.81384,-2.387451 -1.84485,-5.999634 V 66.12915 q 0,-3.844726 1.81385,-6.201171 1.82934,-2.356446 4.82141,-2.356446 2.96106,0 4.65088,1.984375 v -8.712646 h 2.88354 v 23.8125 z m -8.65063,-8.20105 q 0,2.495972 1.0542,4.294311 1.0542,1.782837 3.37964,1.782837 2.6665,0 3.96875,-2.43396 v -7.720459 q -1.28675,-2.387451 -3.93775,-2.387451 -2.34094,0 -3.41064,1.829346 -1.0542,1.813843 -1.0542,4.309814 z"
         style="font-style:normal;font-variant:normal;font-weight:normal;font-stretch:normal;font-size:31.75px;font-family:Roboto;-inkscape-font-specification:'Roboto, Normal';font-variant-ligatures:normal;font-variant-caps:normal;font-variant-numeric:normal;font-variant-east-asian:normal;fill:#ffffff;stroke-width:0.264583"
         id="path84" />
      <path
         d="m 226.34418,60.331055 q -2.80603,0 -3.82923,2.418457 v 11.90625 h -2.86804 v -16.77417 h 2.79053 l 0.062,1.922363 q 1.37976,-2.232422 3.98425,-2.232422 0.80616,0 1.27124,0.217041 l -0.0155,2.666504 q -0.63562,-0.124023 -1.39526,-0.124023 z"
         style="font-style:normal;font-variant:normal;font-weight:normal;font-stretch:normal;font-size:31.75px;font-family:Roboto;-inkscape-font-specification:'Roboto, Normal';font-variant-ligatures:normal;font-variant-caps:normal;font-variant-numeric:normal;font-variant-east-asian:normal;fill:#ffffff;stroke-width:0.264583"
         id="path86" />
      <path
         d="m 229.33624,66.098145 q 0,-3.643189 2.04639,-6.077149 2.04639,-2.449463 5.56555,-2.449463 3.51917,0 5.56555,2.402954 2.04639,2.387451 2.0929,5.968628 v 0.511597 q 0,3.643188 -2.06189,6.077148 -2.04639,2.43396 -5.56555,2.43396 -3.53467,0 -5.59656,-2.43396 -2.04639,-2.43396 -2.04639,-6.077148 z m 2.86804,0.356567 q 0,2.495972 1.17823,4.325317 1.19372,1.829346 3.59668,1.829346 2.34094,0 3.53466,-1.79834 1.19373,-1.813843 1.20923,-4.309814 v -0.403076 q 0,-2.464966 -1.19372,-4.309815 -1.19373,-1.860351 -3.58118,-1.860351 -2.37195,0 -3.56567,1.860351 -1.17823,1.844849 -1.17823,4.309815 z"
         style="font-style:normal;font-variant:normal;font-weight:normal;font-stretch:normal;font-size:31.75px;font-family:Roboto;-inkscape-font-specification:'Roboto, Normal';font-variant-ligatures:normal;font-variant-caps:normal;font-variant-numeric:normal;font-variant-east-asian:normal;fill:#ffffff;stroke-width:0.264583"
         id="path88" />
      <path
         d="m 248.21881,53.432251 q 0,-0.697632 0.41858,-1.178223 0.43408,-0.480591 1.27124,-0.480591 0.82166,0 1.25574,0.480591 0.44958,0.480591 0.44958,1.178223 0,0.666626 -0.44958,1.147217 -0.43408,0.465088 -1.25574,0.465088 -0.83716,0 -1.27124,-0.465088 -0.41858,-0.480591 -0.41858,-1.147217 z m 3.10059,4.449341 v 16.77417 h -2.88355 v -16.77417 z"
         style="font-style:normal;font-variant:normal;font-weight:normal;font-stretch:normal;font-size:31.75px;font-family:Roboto;-inkscape-font-specification:'Roboto, Normal';font-variant-ligatures:normal;font-variant-caps:normal;font-variant-numeric:normal;font-variant-east-asian:normal;fill:#ffffff;stroke-width:0.264583"
         id="path90" />
      <path
         d="m 266.74481,74.655762 -0.13952,-1.79834 q -1.72083,2.108398 -4.79041,2.108398 -2.94556,0 -4.7594,-2.387451 -1.81384,-2.387451 -1.84485,-5.999634 V 66.12915 q 0,-3.844726 1.81385,-6.201171 1.82934,-2.356446 4.82141,-2.356446 2.96106,0 4.65088,1.984375 v -8.712646 h 2.88354 v 23.8125 z m -8.65063,-8.20105 q 0,2.495972 1.0542,4.294311 1.0542,1.782837 3.37964,1.782837 2.6665,0 3.96875,-2.43396 v -7.720459 q -1.28675,-2.387451 -3.93775,-2.387451 -2.34094,0 -3.41064,1.829346 -1.0542,1.813843 -1.0542,4.309814 z"
         style="font-style:normal;font-variant:normal;font-weight:normal;font-stretch:normal;font-size:31.75px;font-family:Roboto;-inkscape-font-specification:'Roboto, Normal';font-variant-ligatures:normal;font-variant-caps:normal;font-variant-numeric:normal;font-variant-east-asian:normal;fill:#ffffff;stroke-width:0.264583"
         id="path92" />
      <path
         d="m 277.2403,52.083496 -0.20154,16.200562 h -2.58899 l -0.21704,-16.200562 z m -3.10059,21.130493 q 0,-0.697632 0.41858,-1.178222 0.43408,-0.480591 1.27124,-0.480591 0.82165,0 1.25574,0.480591 0.44958,0.48059 0.44958,1.178222 0,0.666626 -0.44958,1.147217 -0.43409,0.480591 -1.25574,0.480591 -0.83716,0 -1.27124,-0.480591 -0.41858,-0.480591 -0.41858,-1.147217 z"
         style="font-style:normal;font-variant:normal;font-weight:normal;font-stretch:normal;font-size:31.75px;font-family:Roboto;-inkscape-font-specification:'Roboto, Normal';font-variant-ligatures:normal;font-variant-caps:normal;font-variant-numeric:normal;font-variant-east-asian:normal;fill:#ffffff;stroke-width:0.264583"
         id="path94" />
    </g>
  </g>
</svg>
